[gd_scene load_steps=5 format=3 uid="uid://fprloovbhnqx"]

[ext_resource type="Texture2D" uid="uid://d2q3a3im3mrl5" path="res://assets/background.png" id="1_7tpiw"]
[ext_resource type="Script" path="res://src/end_screen.gd" id="1_yqdq7"]
[ext_resource type="PackedScene" uid="uid://nirl8286enxo" path="res://src/title.tscn" id="2_wtsc1"]
[ext_resource type="PackedScene" uid="uid://b3kiwmgsat1t1" path="res://src/change_scene_button.tscn" id="3_xbo37"]

[node name="EndScreen" type="Control"]
layout_mode = 3
anchors_preset = 15
anchor_right = 1.0
anchor_bottom = 1.0
grow_horizontal = 2
grow_vertical = 2
script = ExtResource("1_yqdq7")

[node name="Background" type="TextureRect" parent="."]
layout_mode = 1
anchors_preset = 15
anchor_right = 1.0
anchor_bottom = 1.0
grow_horizontal = 2
grow_vertical = 2
texture = ExtResource("1_7tpiw")
flip_h = true

[node name="Title" parent="." instance=ExtResource("2_wtsc1")]
layout_mode = 1
offset_left = -215.0
offset_top = 109.0
offset_right = 212.0
offset_bottom = 143.0
text = "Congrats You finished the game !"

[node name="VBoxContainer" type="VBoxContainer" parent="."]
layout_mode = 1
anchors_preset = 8
anchor_left = 0.5
anchor_top = 0.5
anchor_right = 0.5
anchor_bottom = 0.5
offset_left = -122.5
offset_top = -67.5
offset_right = 122.5
offset_bottom = 67.5
grow_horizontal = 2
grow_vertical = 2

[node name="PlayButton" parent="VBoxContainer" instance=ExtResource("3_xbo37")]
layout_mode = 2
text = "Play Again"
next_scene = "res://src/levels/level_template.tscn"

[node name="Label" type="Label" parent="."]
layout_mode = 1
anchors_preset = 5
anchor_left = 0.5
anchor_right = 0.5
offset_left = -20.0
offset_top = 174.0
offset_right = 20.0
offset_bottom = 197.0
grow_horizontal = 2
text = "You Final score is %s.
You died %s times."
